%YAML 1.1
%TAG !u! tag:unity3d.com,2011:
--- !u!1 &1726765860368617772
GameObject:
  m_ObjectHideFlags: 0
  m_CorrespondingSourceObject: {fileID: 0}
  m_PrefabInstance: {fileID: 0}
  m_PrefabAsset: {fileID: 0}
  serializedVersion: 6
  m_Component:
  - component: {fileID: 70648905860847806}
  m_Layer: 0
  m_Name: Elven_Tree_1A3
  m_TagString: Untagged
  m_Icon: {fileID: 0}
  m_NavMeshLayer: 0
  m_StaticEditorFlags: 16
  m_IsActive: 1
--- !u!4 &70648905860847806
Transform:
  m_ObjectHideFlags: 0
  m_CorrespondingSourceObject: {fileID: 0}
  m_PrefabInstance: {fileID: 0}
  m_PrefabAsset: {fileID: 0}
  m_GameObject: {fileID: 1726765860368617772}
  serializedVersion: 2
  m_LocalRotation: {x: 0, y: 0, z: 0, w: 1}
  m_LocalPosition: {x: 0, y: 0, z: 0}
  m_LocalScale: {x: 1, y: 1, z: 1}
  m_ConstrainProportionsScale: 0
  m_Children:
  - {fileID: 6409516512013506106}
  m_Father: {fileID: 0}
  m_LocalEulerAnglesHint: {x: 0, y: 0, z: 0}
--- !u!1001 &6409516512013896890
PrefabInstance:
  m_ObjectHideFlags: 0
  serializedVersion: 2
  m_Modification:
    serializedVersion: 3
    m_TransformParent: {fileID: 70648905860847806}
    m_Modifications:
    - target: {fileID: 100000, guid: 3176aeb440566664ab0bd513a6a46280, type: 3}
      propertyPath: m_Name
      value: baum ld1(enhanced)
      objectReference: {fileID: 0}
    - target: {fileID: 400000, guid: 3176aeb440566664ab0bd513a6a46280, type: 3}
      propertyPath: m_LocalScale.x
      value: 2.3347
      objectReference: {fileID: 0}
    - target: {fileID: 400000, guid: 3176aeb440566664ab0bd513a6a46280, type: 3}
      propertyPath: m_LocalScale.y
      value: 2.3347
      objectReference: {fileID: 0}
    - target: {fileID: 400000, guid: 3176aeb440566664ab0bd513a6a46280, type: 3}
      propertyPath: m_LocalScale.z
      value: 2.3347
      objectReference: {fileID: 0}
    - target: {fileID: 400000, guid: 3176aeb440566664ab0bd513a6a46280, type: 3}
      propertyPath: m_LocalPosition.x
      value: 0
      objectReference: {fileID: 0}
    - target: {fileID: 400000, guid: 3176aeb440566664ab0bd513a6a46280, type: 3}
      propertyPath: m_LocalPosition.y
      value: 0
      objectReference: {fileID: 0}
    - target: {fileID: 400000, guid: 3176aeb440566664ab0bd513a6a46280, type: 3}
      propertyPath: m_LocalPosition.z
      value: 0
      objectReference: {fileID: 0}
    - target: {fileID: 400000, guid: 3176aeb440566664ab0bd513a6a46280, type: 3}
      propertyPath: m_LocalRotation.w
      value: 1
      objectReference: {fileID: 0}
    - target: {fileID: 400000, guid: 3176aeb440566664ab0bd513a6a46280, type: 3}
      propertyPath: m_LocalRotation.x
      value: 0
      objectReference: {fileID: 0}
    - target: {fileID: 400000, guid: 3176aeb440566664ab0bd513a6a46280, type: 3}
      propertyPath: m_LocalRotation.y
      value: 0
      objectReference: {fileID: 0}
    - target: {fileID: 400000, guid: 3176aeb440566664ab0bd513a6a46280, type: 3}
      propertyPath: m_LocalRotation.z
      value: 0
      objectReference: {fileID: 0}
    - target: {fileID: 400000, guid: 3176aeb440566664ab0bd513a6a46280, type: 3}
      propertyPath: m_LocalEulerAnglesHint.x
      value: 0
      objectReference: {fileID: 0}
    - target: {fileID: 400000, guid: 3176aeb440566664ab0bd513a6a46280, type: 3}
      propertyPath: m_LocalEulerAnglesHint.y
      value: 0
      objectReference: {fileID: 0}
    - target: {fileID: 400000, guid: 3176aeb440566664ab0bd513a6a46280, type: 3}
      propertyPath: m_LocalEulerAnglesHint.z
      value: 0
      objectReference: {fileID: 0}
    m_RemovedComponents: []
    m_RemovedGameObjects: []
    m_AddedGameObjects: []
    m_AddedComponents: []
  m_SourcePrefab: {fileID: 100100000, guid: 3176aeb440566664ab0bd513a6a46280, type: 3}
--- !u!4 &6409516512013506106 stripped
Transform:
  m_CorrespondingSourceObject: {fileID: 400000, guid: 3176aeb440566664ab0bd513a6a46280,
    type: 3}
  m_PrefabInstance: {fileID: 6409516512013896890}
  m_PrefabAsset: {fileID: 0}
