%YAML 1.1
%TAG !u! tag:unity3d.com,2011:
--- !u!21 &2100000
Material:
  serializedVersion: 8
  m_ObjectHideFlags: 0
  m_CorrespondingSourceObject: {fileID: 0}
  m_PrefabInstance: {fileID: 0}
  m_PrefabAsset: {fileID: 0}
  m_Name: Invector_vStatue
  m_Shader: {fileID: 46, guid: 0000000000000000f000000000000000, type: 0}
  m_Parent: {fileID: 0}
  m_ModifiedSerializedProperties: 0
  m_ValidKeywords: []
  m_InvalidKeywords:
  - _DETAILVERTEXCOLOR_R
  - _INVERTVERTEXCOLORR_ON
  - _TRIPLANARALBEDO_ON
  - _TRIPLANARDETAILALBEDO_ON
  - _TRIPLANARDETAILMETALLICSMOOTHNEESS_ON
  - _TRIPLANARDETAILNORMAL_ON
  - _TRIPLANARMETALLICSMOOTHNEESS_ON
  - _TRIPLANARNORMAL_ON
  m_LightmapFlags: 4
  m_EnableInstancingVariants: 0
  m_DoubleSidedGI: 0
  m_CustomRenderQueue: -1
  stringTagMap: {}
  disabledShaderPasses: []
  m_LockedProperties: 
  m_SavedProperties:
    serializedVersion: 3
    m_TexEnvs:
    - _Albedo:
        m_Texture: {fileID: 2800000, guid: abcb8e8a1ea38af41a04ba3f0c07a88f, type: 3}
        m_Scale: {x: 1, y: 1}
        m_Offset: {x: 0, y: 0}
    - _AlbedoDetail:
        m_Texture: {fileID: 0}
        m_Scale: {x: 0.2, y: 0.2}
        m_Offset: {x: 0, y: 0}
    - _BumpMap:
        m_Texture: {fileID: 2800000, guid: e120561f4aa0e2c4a9c0167188947100, type: 3}
        m_Scale: {x: 1, y: 1}
        m_Offset: {x: 0, y: 0}
    - _DetailAlbedoMap:
        m_Texture: {fileID: 0}
        m_Scale: {x: 1, y: 1}
        m_Offset: {x: 0, y: 0}
    - _DetailMask:
        m_Texture: {fileID: 0}
        m_Scale: {x: 1, y: 1}
        m_Offset: {x: 0, y: 0}
    - _DetailNormalMap:
        m_Texture: {fileID: 0}
        m_Scale: {x: 1, y: 1}
        m_Offset: {x: 0, y: 0}
    - _EmissionMap:
        m_Texture: {fileID: 0}
        m_Scale: {x: 1, y: 1}
        m_Offset: {x: 0, y: 0}
    - _MainTex:
        m_Texture: {fileID: 2800000, guid: abcb8e8a1ea38af41a04ba3f0c07a88f, type: 3}
        m_Scale: {x: 1, y: 1}
        m_Offset: {x: 0, y: 0}
    - _MetallicGlossMap:
        m_Texture: {fileID: 0}
        m_Scale: {x: 1, y: 1}
        m_Offset: {x: 0, y: 0}
    - _MetallicSmoothness:
        m_Texture: {fileID: 0}
        m_Scale: {x: 1, y: 1}
        m_Offset: {x: 0, y: 0}
    - _MetallicSmoothnessDetail:
        m_Texture: {fileID: 0}
        m_Scale: {x: 1, y: 1}
        m_Offset: {x: 0, y: 0}
    - _Normal:
        m_Texture: {fileID: 2800000, guid: e120561f4aa0e2c4a9c0167188947100, type: 3}
        m_Scale: {x: 1, y: 1}
        m_Offset: {x: 0, y: 0}
    - _NormalDetail:
        m_Texture: {fileID: 2800000, guid: 94bc72c56a46e474f8e0cf95c5f0aa49, type: 3}
        m_Scale: {x: 0.2, y: 0.2}
        m_Offset: {x: 0, y: 0}
    - _OcclusionMap:
        m_Texture: {fileID: 0}
        m_Scale: {x: 1, y: 1}
        m_Offset: {x: 0, y: 0}
    - _ParallaxMap:
        m_Texture: {fileID: 0}
        m_Scale: {x: 1, y: 1}
        m_Offset: {x: 0, y: 0}
    - _TopTexture0:
        m_Texture: {fileID: 0}
        m_Scale: {x: 1, y: 1}
        m_Offset: {x: 0, y: 0}
    - _texcoord:
        m_Texture: {fileID: 0}
        m_Scale: {x: 1, y: 1}
        m_Offset: {x: 0, y: 0}
    m_Ints: []
    m_Floats:
    - _BumpScale: 0.2
    - _Cutoff: 0.5
    - _DetailNormalMapScale: 1
    - _DetailVertexColor: 0
    - _DstBlend: 0
    - _GlossMapScale: 1
    - _Glossiness: 0.5
    - _GlossyReflections: 1
    - _InvertVertexColorR: 1
    - _Metallic: 0
    - _MetallicDetail: 0.158
    - _Mode: 0
    - _NormalDetailScale: 1
    - _NormalScale: 1
    - _NormalScale1: 0
    - _OcclusionStrength: 1
    - _Parallax: 0.02
    - _ShowVertexColor: 0
    - _ShowVertexMaskR: 0
    - _Smoothness: 0.304
    - _SmoothnessDetail: 0.071
    - _SmoothnessTextureChannel: 0
    - _SpecularHighlights: 1
    - _SrcBlend: 1
    - _TriplanarAlbedo: 1
    - _TriplanarAlbedo1: 0
    - _TriplanarAlbedo2: 0
    - _TriplanarDetailAlbedo: 1
    - _TriplanarDetailMetallicSmoothneess: 1
    - _TriplanarDetailNormal: 1
    - _TriplanarGlobal: 0
    - _TriplanarMetallicSmoothneess: 1
    - _TriplanarMetallicSmoothneess1: 0
    - _TriplanarNormal: 1
    - _TriplanarNormal1: 0
    - _UVSec: 0
    - _VertexMaskContrast: 0.92
    - _VertexMaskPower: 0.52
    - _ZWrite: 1
    - __dirty: 1
    m_Colors:
    - _AlbedoColor: {r: 0.764151, g: 0.764151, b: 0.764151, a: 1}
    - _Color: {r: 1, g: 1, b: 1, a: 1}
    - _DetailColor: {r: 0.3018868, g: 0.3018868, b: 0.3018868, a: 1}
    - _EmissionColor: {r: 0, g: 0, b: 0, a: 1}
  m_BuildTextureStacks: []
